	Set Theory	Model Theory	Reflection Principles and Modal logic	Proof Theory and Proof Complexity	Computability	Foundations of Geometry	General
Apr-18		Bottazzi		Khamisyan	Shafer		Corcoran
		Sudoplatov		Kuroda	Solda		Corcoran-Rind
		Iwanow		Petrosyan	Zubkov		Corcoran-Tracy
		Kulpeshov		(Solda)			Fiske
		Mennuni					Ramirez
		Pavlyuk					Tussupov
							VanAbel
							Vlasakova

May-06	Bjordal	Braunfeld	(Cheng)	(Tabatabai)	(Stukachev-Rhyzkov-Stukacheva)	Balbiani	Appleby
	Bukovsky	Campercholi	Granberg Olsson	(Vladimirov)	Aleksandrova	Blaszczyk	Aranda
	Gordon	Espindola	Kurahashi	Arai	Alvir	Fila	Arazim
	Howe	Issayeva	Litak	Baghdasaryan	Bazhenov	Pierce	Baldi
	Kanovei	Kikyo	Sarma	Bessonov	Issakhov		Baldwin
	Kuzeljevic	Kucera	Tabatabai	Ferreira	Korneeva		Behounek
	Levine	Lieberman	Yun	Gawek	Ospichev		Boricic
	Saveliev	Mussina		Giessen	San Mauro		Bozdag
	Supina	Shahnazaryan		Granberg Olsson - Leigh	Soskova		Cacic
	Sziraki	Stukachev-Rhyzkov-Stukacheva		Cheng	Stukachev		Drobyshevich
	Tarafder	Vasey		Indrzejczak	Vlasov		Fan
	Vladimirov	Zambrano		Jalali	Zainetdinov		Fernandez-Duque
				Leigh			Glebsky
				Parlamento			Glenszczyk
				Pereira			Gorbow
							Horvat
							Ivanova
							Jakl
							Joosten
							Konecny
							Konecny-Hubicka-Nesetril
							Lelyk
							Lindberg
							Lubarsky
							Madeira
							Mendez
							Mirek
							Mishra
							Mueller-Theys
							Mukhopadhyay
							Nicolas-Francisco
							Niki
							Polacik
							Sanders
							Shapirovsky
							Shoem
							Sipos
							Sitek
							Tanus
							Tedder
							Wang
Jun-1		Bradley-Williams	(Van Gool)	Akiyoshi-Arana	Lutz	(Garbayo)	Antezana
		Van Gool	Ansari	Kanckos	Vatev	Harutyunyan	Conti
			Garbayo				Hodes
							Korkmaz
							Martínez Herrera
							Petik
							Sedlar
							Shami
							Starikova
							Wcislo
Jun-10	Jureczko	Lee	Frittaion				Sharma
							Weiermann
